{
	"info": {
		"_postman_id": "c2d76ef9-4e89-467a-9dc9-98df4806e53b",
		"name": "Meratus Online API",
		"description": "This is documentation of Meratus Online API used by mobile application",
		"schema": "https://schema.getpostman.com/json/collection/v2.1.0/collection.json"
	},
	"item": [
		{
			"name": "Users",
			"item": [
				{
					"name": "LOGIN",
					"event": [
						{
							"listen": "test",
							"script": {
								"id": "f2618e7f-9fd1-43e7-a72b-fafe27319e88",
								"exec": [
									""
								],
								"type": "text/javascript"
							}
						}
					],
					"request": {
						"method": "POST",
						"header": [
							{
								"key": "Content-Type",
								"name": "Content-Type",
								"value": "application/json",
								"type": "text"
							}
						],
						"body": {
							"mode": "raw",
							"raw": "[\n    {\n        \"UNAME\": \"{{username}}\",\n        \"PWD\": \"{{password}}\",\n        \"SESSIONID\": \"{{firebaseId}}\"\n    }\n]",
							"options": {
								"raw": {
									"language": "json"
								}
							}
						},
						"url": {
							"raw": "{{server}}/RemoteAPILoginMobile.ashx",
							"host": [
								"{{server}}"
							],
							"path": [
								"RemoteAPILoginMobile.ashx"
							]
						},
						"description": "Validating user credentials using username and password"
					},
					"response": []
				},
				{
					"name": "FORGOT_PASSWORD",
					"request": {
						"method": "GET",
						"header": [],
						"url": {
							"raw": "{{server}}/RemoteAPIRequestResetPassword.ashx?UNAME={{username}}",
							"host": [
								"{{server}}"
							],
							"path": [
								"RemoteAPIRequestResetPassword.ashx"
							],
							"query": [
								{
									"key": "UNAME",
									"value": "{{username}}"
								}
							]
						},
						"description": "User set forgot password command"
					},
					"response": []
				},
				{
					"name": "LOGIN_STATUS",
					"request": {
						"method": "GET",
						"header": [],
						"url": {
							"raw": "{{server}}/RemoteAPIGetLoginStatus.ashx?TOKEN={{token}}",
							"host": [
								"{{server}}"
							],
							"path": [
								"RemoteAPIGetLoginStatus.ashx"
							],
							"query": [
								{
									"key": "TOKEN",
									"value": "{{token}}"
								}
							]
						},
						"description": "Cek login status"
					},
					"response": []
				},
				{
					"name": "LOGOUT",
					"request": {
						"method": "GET",
						"header": [],
						"url": {
							"raw": "{{server}}/RemoteLogout.ashx?UNAME={{username}}&TOKEN={{token}}",
							"host": [
								"{{server}}"
							],
							"path": [
								"RemoteLogout.ashx"
							],
							"query": [
								{
									"key": "UNAME",
									"value": "{{username}}"
								},
								{
									"key": "TOKEN",
									"value": "{{token}}"
								}
							]
						},
						"description": "Command when user logout"
					},
					"response": []
				},
				{
					"name": "USER_PROFILE",
					"request": {
						"method": "GET",
						"header": [],
						"url": {
							"raw": "{{server}}/RemoteUserProfile.ashx?UNAME={{username}}&TOKEN={{token}}",
							"host": [
								"{{server}}"
							],
							"path": [
								"RemoteUserProfile.ashx"
							],
							"query": [
								{
									"key": "UNAME",
									"value": "{{username}}"
								},
								{
									"key": "TOKEN",
									"value": "{{token}}"
								}
							]
						},
						"description": "Show current user profile"
					},
					"response": []
				},
				{
					"name": "GET_USER_MANAGEMENT",
					"request": {
						"method": "GET",
						"header": [],
						"url": {
							"raw": "{{server}}/RemoteAPIGetUserManagement.ashx?TOKEN={{token}}",
							"host": [
								"{{server}}"
							],
							"path": [
								"RemoteAPIGetUserManagement.ashx"
							],
							"query": [
								{
									"key": "TOKEN",
									"value": "{{token}}"
								}
							]
						},
						"description": "Show user management"
					},
					"response": []
				},
				{
					"name": "CHANGE_COMPANY",
					"request": {
						"method": "GET",
						"header": [],
						"url": {
							"raw": "{{server}}/RemoteAPIChangeUserCompany.ashx?UNAME={{username}}&TOKEN={{token}}&NEWCUST=MITINF0005",
							"host": [
								"{{server}}"
							],
							"path": [
								"RemoteAPIChangeUserCompany.ashx"
							],
							"query": [
								{
									"key": "UNAME",
									"value": "{{username}}"
								},
								{
									"key": "TOKEN",
									"value": "{{token}}"
								},
								{
									"key": "NEWCUST",
									"value": "MITINF0005"
								}
							]
						},
						"description": "Comamnd when user want to change company"
					},
					"response": []
				},
				{
					"name": "SUBMIT_NEW_USER",
					"request": {
						"method": "POST",
						"header": [
							{
								"key": "Content-Type",
								"name": "Content-Type",
								"value": "application/json",
								"type": "text"
							}
						],
						"body": {
							"mode": "raw",
							"raw": "[\n    {\n        \"TOKEN\": \"{{token}}\",\n        \"FIRSTNAME\": \"\",\n        \"LASTNAME\": \"\",\n        \"COMPANY\": \"\",\n        \"UNAME\": \"\",\n        \"LEVEL\": \"\",\n        \"PHONE\": \"\",\n        \"ASCS\": \"\"\n    }\n]"
						},
						"url": {
							"raw": "{{server}}/RemoteAPISubmitNewUser.ashx",
							"host": [
								"{{server}}"
							],
							"path": [
								"RemoteAPISubmitNewUser.ashx"
							]
						},
						"description": "Command to submit new user"
					},
					"response": []
				},
				{
					"name": "SET_ENABLE_USER",
					"request": {
						"method": "GET",
						"header": [],
						"url": {
							"raw": "{{server}}/RemoteAPISetEnableAccount.ashx?TOKEN={{token}}&UNAME={{username}}",
							"host": [
								"{{server}}"
							],
							"path": [
								"RemoteAPISetEnableAccount.ashx"
							],
							"query": [
								{
									"key": "TOKEN",
									"value": "{{token}}"
								},
								{
									"key": "UNAME",
									"value": "{{username}}"
								}
							]
						},
						"description": "Command to set enable user"
					},
					"response": []
				},
				{
					"name": "SET_DISABLE_USER",
					"request": {
						"method": "GET",
						"header": [],
						"url": {
							"raw": "{{server}}/RemoteAPISetDisableAccount.ashx?TOKEN={{token}}&UNAME={{username}}",
							"host": [
								"{{server}}"
							],
							"path": [
								"RemoteAPISetDisableAccount.ashx"
							],
							"query": [
								{
									"key": "TOKEN",
									"value": "{{token}}"
								},
								{
									"key": "UNAME",
									"value": "{{username}}"
								}
							]
						},
						"description": "Command to set disable user"
					},
					"response": []
				},
				{
					"name": "DELETE_USER",
					"request": {
						"method": "POST",
						"header": [
							{
								"key": "Content-Type",
								"name": "Content-Type",
								"type": "text",
								"value": "application/json"
							}
						],
						"body": {
							"mode": "raw",
							"raw": "[\n\t{\n\t\t\"UNAME\": \"{{username}}\",\n\t\t\"TOKEN\": \"{{token}}\"\n\t}\n\t\n]"
						},
						"url": {
							"raw": "{{server}}/RemoteAPIDeleteUser.ashx",
							"host": [
								"{{server}}"
							],
							"path": [
								"RemoteAPIDeleteUser.ashx"
							]
						},
						"description": "Command to delete user"
					},
					"response": []
				},
				{
					"name": "REGISTER_USER",
					"request": {
						"method": "POST",
						"header": [
							{
								"key": "Content-Type",
								"name": "Content-Type",
								"value": "application/json",
								"type": "text"
							}
						],
						"body": {
							"mode": "raw",
							"raw": "[\n\t{\n\t\t\"TOKEN\": \"{{token}}\",\n    \t\"EMAILADD\": \"\",\n    \t\"FULLNAME\": \"\",\n    \t\"CUSTTYPE\": \"\",\n    \t\"COMPANYNAME\": \"\",\n    \t\"COMPANYPHONE\": \"\",\n    \t\"COMPANYLOC\": \"\",\n    \t\"COMPANYADDRESS\": \"\",\n    \t\"KTP\": \"\",\n    \t\"NPWP\": \"\"\n\t}\n]"
						},
						"url": {
							"raw": "{{server}}/RemoteAPIRegisterUser.ashx",
							"host": [
								"{{server}}"
							],
							"path": [
								"RemoteAPIRegisterUser.ashx"
							]
						},
						"description": "Command to register new user"
					},
					"response": []
				},
				{
					"name": "GET_USER_ADMIN_COMPANY",
					"request": {
						"method": "GET",
						"header": [],
						"url": {
							"raw": "{{server}}/RemoteAPIGetUserAdminCompanies.ashx?TOKEN={{token}}",
							"host": [
								"{{server}}"
							],
							"path": [
								"RemoteAPIGetUserAdminCompanies.ashx"
							],
							"query": [
								{
									"key": "TOKEN",
									"value": "{{token}}"
								}
							]
						},
						"description": "Show user admin company"
					},
					"response": []
				},
				{
					"name": "GET_USER_ROLE_LIST",
					"request": {
						"method": "POST",
						"header": [
							{
								"key": "Content-Type",
								"name": "Content-Type",
								"value": "application/json",
								"type": "text"
							}
						],
						"body": {
							"mode": "raw",
							"raw": "[\n\t{\n\t\t\"ROLEID_RLH\": \"\",\n\t\t\"DESCRIPTION_RLH\": \"\"\n\t\t\n\t}\n\t\n]"
						},
						"url": {
							"raw": "{{server}}/RemoteAPIGetUserRoleList.ashx",
							"host": [
								"{{server}}"
							],
							"path": [
								"RemoteAPIGetUserRoleList.ashx"
							]
						},
						"description": "Show user role list"
					},
					"response": []
				},
				{
					"name": "GET_USER_AUTH_LIST",
					"request": {
						"method": "POST",
						"header": [
							{
								"key": "Content-Type",
								"name": "Content-Type",
								"value": "application/json",
								"type": "text"
							}
						],
						"body": {
							"mode": "raw",
							"raw": "[\n\t{\n\t\t\"ROLEID_RLD\": \"\",\n\t\t\"PAGEID_RLD\": \"\",\n\t\t\"CANDO_RLD\": \"\",\n\t\t\"OBJECT_RLD\": \"\",\n\t\t\"SUBOBJECT_RLD\": \"\",\n\t\t\"SUBOBJECTNAME_RLD\": \"\"\n\t}\n\t\n]"
						},
						"url": {
							"raw": "{{server}}/RemoteAPIGetCurrentPageAuthorization.ashx",
							"host": [
								"{{server}}"
							],
							"path": [
								"RemoteAPIGetCurrentPageAuthorization.ashx"
							]
						},
						"description": "Show user authentification list"
					},
					"response": []
				},
				{
					"name": "GET_USER_AVATAR",
					"request": {
						"method": "POST",
						"header": [
							{
								"key": "Content-Type",
								"name": "Content-Type",
								"value": "application/json",
								"type": "text"
							}
						],
						"body": {
							"mode": "raw",
							"raw": "[\n\t{\n\t\t\"TOKEN\": \"{{token}}\"\n\t}\n]"
						},
						"url": {
							"raw": "{{server}}/RemoteAPIGetUserAvatar.ashx",
							"host": [
								"{{server}}"
							],
							"path": [
								"RemoteAPIGetUserAvatar.ashx"
							]
						},
						"description": "Show user avatar"
					},
					"response": []
				},
				{
					"name": "UPDATE_USER_AVATAR",
					"request": {
						"method": "POST",
						"header": [
							{
								"key": "Content-Type",
								"name": "Content-Type",
								"value": "application/json",
								"type": "text"
							}
						],
						"body": {
							"mode": "raw",
							"raw": "[\n\t{\n\t\t\"TOKEN\": \"{{token}}\"\n\t}\n]"
						},
						"url": {
							"raw": "{{server}}/RemoteAPIUpdateUserAvatar.ashx",
							"host": [
								"{{server}}"
							],
							"path": [
								"RemoteAPIUpdateUserAvatar.ashx"
							]
						},
						"description": "Comamnd to update user avatar"
					},
					"response": []
				}
			],
			"description": "Endpoint for managing users like login, logout, fetch and update profile etc.",
			"event": [
				{
					"listen": "prerequest",
					"script": {
						"id": "b6743d01-6412-4c68-9f65-76cb673a7bbc",
						"type": "text/javascript",
						"exec": [
							""
						]
					}
				},
				{
					"listen": "test",
					"script": {
						"id": "b0c0aab1-ed5b-4488-be95-d011ce2e86de",
						"type": "text/javascript",
						"exec": [
							""
						]
					}
				}
			],
			"protocolProfileBehavior": {}
		},
		{
			"name": "Setup Notification",
			"item": [
				{
					"name": "GET_SETUP_NOTIF",
					"request": {
						"method": "POST",
						"header": [
							{
								"key": "Content-Type",
								"name": "Content-Type",
								"value": "application/json",
								"type": "text"
							}
						],
						"body": {
							"mode": "raw",
							"raw": "[\n    {\n        \"UNAME\": \"{{username}}\",\n        \"TOKEN\": \"{{token}}\"\n    }\n]",
							"options": {
								"raw": {
									"language": "json"
								}
							}
						},
						"url": {
							"raw": "{{server}}/RemoteAPIGetUserNotificationRole.ashx",
							"host": [
								"{{server}}"
							],
							"path": [
								"RemoteAPIGetUserNotificationRole.ashx"
							]
						},
						"description": "Command for get notification"
					},
					"response": []
				},
				{
					"name": "SAVE_SETUP_NOTIF",
					"request": {
						"method": "POST",
						"header": [
							{
								"key": "Content-Type",
								"name": "Content-Type",
								"value": "application/json",
								"type": "text"
							}
						],
						"body": {
							"mode": "raw",
							"raw": "[\n    {\n        \"UNAME\": \"{{username}}\",\n        \"TOKEN\": \"{{token}}\"\n    }\n]",
							"options": {
								"raw": {
									"language": "json"
								}
							}
						},
						"url": {
							"raw": "{{server}}/RemoteAPIUpdateUserNotifRole.ashx",
							"host": [
								"{{server}}"
							],
							"path": [
								"RemoteAPIUpdateUserNotifRole.ashx"
							]
						},
						"description": "Show response when save notification"
					},
					"response": []
				}
			],
			"description": "Endpoint to manage notification like get notification and save set up notification",
			"event": [
				{
					"listen": "prerequest",
					"script": {
						"id": "9748ced7-d8f0-45ca-b184-613d8b100e1b",
						"type": "text/javascript",
						"exec": [
							""
						]
					}
				},
				{
					"listen": "test",
					"script": {
						"id": "78b42b25-ce13-41d1-b8cd-10e5730a2cef",
						"type": "text/javascript",
						"exec": [
							""
						]
					}
				}
			],
			"protocolProfileBehavior": {}
		},
		{
			"name": "PIN",
			"item": [
				{
					"name": "GET_SETUP_PIN",
					"request": {
						"method": "POST",
						"header": [
							{
								"key": "Content-Type",
								"name": "Content-Type",
								"value": "application/json",
								"type": "text"
							}
						],
						"body": {
							"mode": "raw",
							"raw": "[\n    {\n        \"UNAME\": \"{{username}}\",\n        \"TOKEN\": \"{{token}}\"\n    }\n]",
							"options": {
								"raw": {
									"language": "json"
								}
							}
						},
						"url": {
							"raw": "{{server}}/RemoteAPIGetPINRequiredItems.ashx",
							"host": [
								"{{server}}"
							],
							"path": [
								"RemoteAPIGetPINRequiredItems.ashx"
							]
						},
						"description": "Command to show set up pin"
					},
					"response": []
				},
				{
					"name": "UPDATE_SETUP_PIN",
					"request": {
						"method": "POST",
						"header": [
							{
								"key": "Content-Type",
								"name": "Content-Type",
								"value": "application/json",
								"type": "text"
							}
						],
						"body": {
							"mode": "raw",
							"raw": "[\n    {\n        \"UNAME\": \"{{username}}\",\n        \"TOKEN\": \"{{token}}\"\n    }\n]",
							"options": {
								"raw": {
									"language": "json"
								}
							}
						},
						"url": {
							"raw": "{{server}}/RemoteAPIUpdateUserPINRequired.ashx",
							"host": [
								"{{server}}"
							],
							"path": [
								"RemoteAPIUpdateUserPINRequired.ashx"
							]
						},
						"description": "When the user want to update pin"
					},
					"response": []
				},
				{
					"name": "CHECK_PIN_REQUIRED",
					"request": {
						"method": "POST",
						"header": [
							{
								"key": "Content-Type",
								"name": "Content-Type",
								"value": "application/json",
								"type": "text"
							}
						],
						"body": {
							"mode": "raw",
							"raw": "[\n    {\n        \"UNAME\": \"{{username}}\",\n        \"TOKEN\": \"{{token}}\"\n    }\n]",
							"options": {
								"raw": {
									"language": "json"
								}
							}
						},
						"url": {
							"raw": "{{server}}/RemoteAPICheckIfRequiredPIN.ashx",
							"host": [
								"{{server}}"
							],
							"path": [
								"RemoteAPICheckIfRequiredPIN.ashx"
							]
						},
						"description": "Command to check pin required"
					},
					"response": []
				},
				{
					"name": "REQUEST_PIN",
					"request": {
						"method": "POST",
						"header": [
							{
								"key": "Content-Type",
								"name": "Content-Type",
								"value": "application/json",
								"type": "text"
							}
						],
						"body": {
							"mode": "raw",
							"raw": "[\n\t{\n\t\t\"PINREQUIRED\": \"\",\n\t\t\"UNAME\": \"{{username}}\",\n\t\t\"TOKEN\": \"{{token}}\",\n\t\t\"OLDPIN\": \"\",\n\t\t\"NEWPIN\": \"\",\n\t\t\"ERRSTSTUS\": \"\",\n\t\t\"QUEUED\": \"\"\n\t}\n\t\n]"
						},
						"url": {
							"raw": "{{server}}/RemoteAPIRequestUserPIN.ashx",
							"host": [
								"{{server}}"
							],
							"path": [
								"RemoteAPIRequestUserPIN.ashx"
							]
						},
						"description": "Command to request PIN"
					},
					"response": []
				},
				{
					"name": "CHECK_PIN_EXPIRED",
					"request": {
						"method": "POST",
						"header": [
							{
								"key": "Content-Type",
								"name": "Content-Type",
								"value": "application/json",
								"type": "text"
							}
						],
						"body": {
							"mode": "raw",
							"raw": "[\n\t{\n\t\t\"PINREQUIRED\": \"\",\n\t\t\"UNAME\": \"{{username}}\",\n\t\t\"TOKEN\": \"{{token}}\",\n\t\t\"OLDPIN\": \"\",\n\t\t\"NEWPIN\": \"\",\n\t\t\"ERRSTSTUS\": \"\",\n\t\t\"QUEUED\": \"\"\n\t}\n\t\n]"
						},
						"url": {
							"raw": "{{server}}/RemoteAPICheckUserPINExpired.ashx",
							"host": [
								"{{server}}"
							],
							"path": [
								"RemoteAPICheckUserPINExpired.ashx"
							]
						},
						"description": "Command to check PIN expired"
					},
					"response": []
				},
				{
					"name": "ACTIVE_PIN",
					"request": {
						"method": "POST",
						"header": [
							{
								"key": "Content-Type",
								"name": "Content-Type",
								"value": "application/json",
								"type": "text"
							}
						],
						"body": {
							"mode": "raw",
							"raw": "[\n\t{\n\t\t\"PINREQUIRED\": \"\",\n\t\t\"UNAME\": \"{{username}}\",\n\t\t\"TOKEN\": \"{{token}}\",\n\t\t\"OLDPIN\": \"\",\n\t\t\"NEWPIN\": \"\",\n\t\t\"ERRSTSTUS\": \"\",\n\t\t\"QUEUED\": \"\"\n\t}\n\t\n]"
						},
						"url": {
							"raw": "{{server}}/RemoteAPIActivateUserPIN.ashx",
							"host": [
								"{{server}}"
							],
							"path": [
								"RemoteAPIActivateUserPIN.ashx"
							]
						},
						"description": "Command to active PIN"
					},
					"response": []
				},
				{
					"name": "VALIDATE_PIN",
					"request": {
						"method": "POST",
						"header": [
							{
								"key": "Content-Type",
								"name": "Content-Type",
								"value": "application/json",
								"type": "text"
							}
						],
						"body": {
							"mode": "raw",
							"raw": "[\n\t{\n\t\t\"PINREQUIRED\": \"\",\n\t\t\"UNAME\": \"{{username}}\",\n\t\t\"TOKEN\": \"{{token}}\",\n\t\t\"OLDPIN\": \"\",\n\t\t\"NEWPIN\": \"\",\n\t\t\"ERRSTSTUS\": \"\",\n\t\t\"QUEUED\": \"\"\n\t}\n\t\n]"
						},
						"url": {
							"raw": "{{server}}/RemoteAPIValidateUserPIN.ashx",
							"host": [
								"{{server}}"
							],
							"path": [
								"RemoteAPIValidateUserPIN.ashx"
							]
						},
						"description": "Command to validate PIN"
					},
					"response": []
				}
			],
			"description": "Endpoint to manage pin like get set up, update, and check pin required",
			"event": [
				{
					"listen": "prerequest",
					"script": {
						"id": "9b9b9bf6-9884-40bc-a4b5-e7adbe4deae6",
						"type": "text/javascript",
						"exec": [
							""
						]
					}
				},
				{
					"listen": "test",
					"script": {
						"id": "c1e54b46-dfc8-40e9-83a8-3d75693a1bec",
						"type": "text/javascript",
						"exec": [
							""
						]
					}
				}
			],
			"protocolProfileBehavior": {}
		},
		{
			"name": "Notifications",
			"item": [
				{
					"name": "GET_READ_NOTIF",
					"request": {
						"method": "GET",
						"header": [
							{
								"key": "Content-Type",
								"name": "Content-Type",
								"type": "text",
								"value": "application/json"
							}
						],
						"url": {
							"raw": "{{server}}/RemoteAPIGetNewNotification.ashx?TOKEN={{token}}",
							"host": [
								"{{server}}"
							],
							"path": [
								"RemoteAPIGetNewNotification.ashx"
							],
							"query": [
								{
									"key": "TOKEN",
									"value": "{{token}}"
								}
							]
						},
						"description": "Command to show notification have been read"
					},
					"response": []
				},
				{
					"name": "GET_NEW_NOTIF",
					"request": {
						"method": "GET",
						"header": [],
						"url": {
							"raw": "{{server}}/RemoteAPIGetNewNotification.ashx?TOKEN={{token}}",
							"host": [
								"{{server}}"
							],
							"path": [
								"RemoteAPIGetNewNotification.ashx"
							],
							"query": [
								{
									"key": "TOKEN",
									"value": "{{token}}"
								}
							]
						},
						"description": "Command to show new notif"
					},
					"response": []
				},
				{
					"name": "SET_READ_NOTIF",
					"request": {
						"method": "GET",
						"header": [],
						"url": {
							"raw": "{{server}}/RemoteAPISetNotificationRead.ashx?TOKEN={{token}}",
							"host": [
								"{{server}}"
							],
							"path": [
								"RemoteAPISetNotificationRead.ashx"
							],
							"query": [
								{
									"key": "TOKEN",
									"value": "{{token}}"
								}
							]
						},
						"description": "Command to set notif"
					},
					"response": []
				},
				{
					"name": "SET_ALL_READ_NOTIF",
					"request": {
						"method": "POST",
						"header": [
							{
								"key": "Content-Type",
								"name": "Content-Type",
								"value": "application/json",
								"type": "text"
							}
						],
						"body": {
							"mode": "raw",
							"raw": "[\n    {\n        \"TOKEN\": \"{{token}}\",\n        \"IDNO\": \"\"\n    }\n]"
						},
						"url": {
							"raw": "{{server}}/RemoteAPISetReadAllNotification.ashx",
							"host": [
								"{{server}}"
							],
							"path": [
								"RemoteAPISetReadAllNotification.ashx"
							]
						}
					},
					"response": []
				},
				{
					"name": "DEL_ALL_READ_NOTIF",
					"request": {
						"method": "POST",
						"header": [
							{
								"key": "Content-Type",
								"name": "Content-Type",
								"value": "application/json",
								"type": "text"
							}
						],
						"body": {
							"mode": "raw",
							"raw": "[\n    {\n        \"TOKEN\": \"{{token}}\",\n        \"IDNO\": \"\"\n    }\n]"
						},
						"url": {
							"raw": "{{server}}/RemoteAPIDeleteAllNotification.ashx",
							"host": [
								"{{server}}"
							],
							"path": [
								"RemoteAPIDeleteAllNotification.ashx"
							]
						}
					},
					"response": []
				},
				{
					"name": "DEL_READ_NOTIF",
					"request": {
						"method": "GET",
						"header": [],
						"url": {
							"raw": "{{server}}/RemoteAPIDeleteNotification.ashx?TOKEN={{token}}",
							"host": [
								"{{server}}"
							],
							"path": [
								"RemoteAPIDeleteNotification.ashx"
							],
							"query": [
								{
									"key": "TOKEN",
									"value": "{{token}}"
								}
							]
						}
					},
					"response": []
				}
			],
			"description": "Manage notification like get read notif, get new notif, and set read notif",
			"event": [
				{
					"listen": "prerequest",
					"script": {
						"id": "eb2b0d84-aeaf-4566-ba25-fd2f96585668",
						"type": "text/javascript",
						"exec": [
							""
						]
					}
				},
				{
					"listen": "test",
					"script": {
						"id": "369fac0f-d4ba-44af-bb3d-f616a41aa150",
						"type": "text/javascript",
						"exec": [
							""
						]
					}
				}
			],
			"protocolProfileBehavior": {}
		},
		{
			"name": "Schedule",
			"item": [
				{
					"name": "PORT",
					"request": {
						"method": "GET",
						"header": [],
						"url": {
							"raw": "{{server}}/RemotePelabuhan.ashx",
							"host": [
								"{{server}}"
							],
							"path": [
								"RemotePelabuhan.ashx"
							]
						},
						"description": "Command to show ID port and name port"
					},
					"response": []
				},
				{
					"name": "MCARE_CONTACT",
					"request": {
						"method": "GET",
						"header": [],
						"url": {
							"raw": "{{server}}/RemoteAPIGetMCareContacts.ashx?TOKEN={{token}}",
							"host": [
								"{{server}}"
							],
							"path": [
								"RemoteAPIGetMCareContacts.ashx"
							],
							"query": [
								{
									"key": "TOKEN",
									"value": "{{token}}"
								}
							]
						},
						"description": "Show contact service office"
					},
					"response": []
				},
				{
					"name": "SUBMIT_FEEDBACK",
					"request": {
						"method": "POST",
						"header": [
							{
								"key": "Content-Type",
								"name": "Content-Type",
								"value": "application/json",
								"type": "text"
							}
						],
						"body": {
							"mode": "raw",
							"raw": "[\n    {\n        \"TOKEN\": \"qnvCqscYfvOV3bxRkBXGJP2qUr5SWqbIonDIyNWfNPN4m5oqgP\",\n        \"FEED_TYPE\": \"\",\n        \"USER_EMAIL\": \"\",\n        \"FEED_SUBJECT\": \"\",\n        \"FEED_MESSAGE\": \"\",\n        \"FEED_SECTION\": \"\"\n    }\n]"
						},
						"url": {
							"raw": "{{server}}/RemoteAPISubmitFeedback.ashx",
							"host": [
								"{{server}}"
							],
							"path": [
								"RemoteAPISubmitFeedback.ashx"
							]
						},
						"description": "Command to submit feedback"
					},
					"response": []
				},
				{
					"name": "GET_FEEDBACK_CATEGORY",
					"request": {
						"method": "GET",
						"header": [],
						"url": {
							"raw": "{{server}}/RemoteAPIGetFeedbackCategory.ashx",
							"host": [
								"{{server}}"
							],
							"path": [
								"RemoteAPIGetFeedbackCategory.ashx"
							]
						},
						"description": "Command to get feedback"
					},
					"response": []
				},
				{
					"name": "GET_VESSEL_POS",
					"request": {
						"method": "GET",
						"header": [],
						"url": {
							"raw": "{{server}}/RemoteAPIGetVesselPosition.ashx?VESSEL",
							"host": [
								"{{server}}"
							],
							"path": [
								"RemoteAPIGetVesselPosition.ashx"
							],
							"query": [
								{
									"key": "VESSEL",
									"value": null
								}
							]
						},
						"description": "Show vessel pos"
					},
					"response": []
				},
				{
					"name": "TRACKING",
					"request": {
						"method": "GET",
						"header": [],
						"url": {
							"raw": "{{server}}/RemoteContTracking.ashx?LANG=IDN&ContNo=0",
							"host": [
								"{{server}}"
							],
							"path": [
								"RemoteContTracking.ashx"
							],
							"query": [
								{
									"key": "LANG",
									"value": "IDN"
								},
								{
									"key": "ContNo",
									"value": "0"
								}
							]
						},
						"description": "Show response from command tracking"
					},
					"response": []
				},
				{
					"name": "SCHEDULE",
					"request": {
						"method": "POST",
						"header": [
							{
								"key": "Content-Type",
								"name": "Content-Type",
								"value": "application/json",
								"type": "text"
							}
						],
						"body": {
							"mode": "raw",
							"raw": "[\n    {\n        \"POL\": \"PANTOLOAN\",\n    \t\"POD\": \"IDAMQ\",\n    \t\"POLNAME\": \"BALIKPAPAPN\",\n    \t\"PODNAME\": \"AMBON\",\n    \t\"FROMDATE\":\"28 OCT 2017 17:30\",\n    \t\"RECNUM\": \"0\",\n        \"TOKEN\": \"{{token}}\"\n    }\n]",
							"options": {
								"raw": {
									"language": "json"
								}
							}
						},
						"url": {
							"raw": "{{server}}/RemoteAPISubmitBookingRequest.ashx",
							"host": [
								"{{server}}"
							],
							"path": [
								"RemoteAPISubmitBookingRequest.ashx"
							]
						},
						"description": "Show schedule from delivery"
					},
					"response": []
				},
				{
					"name": "COMMODITY",
					"request": {
						"method": "GET",
						"header": [],
						"url": {
							"raw": "{{server}}/RemoteAPIGetCommodity.ashx?PORT=Ambon&UNAME={{username}}&TOKEN={{token}}&COMM=0",
							"host": [
								"{{server}}"
							],
							"path": [
								"RemoteAPIGetCommodity.ashx"
							],
							"query": [
								{
									"key": "PORT",
									"value": "Ambon"
								},
								{
									"key": "UNAME",
									"value": "{{username}}"
								},
								{
									"key": "TOKEN",
									"value": "{{token}}"
								},
								{
									"key": "COMM",
									"value": "0"
								}
							]
						},
						"description": "Command to show commodity"
					},
					"response": []
				},
				{
					"name": "DEPOT_BY_BOOK",
					"request": {
						"method": "GET",
						"header": [],
						"url": {
							"raw": "{{server}}/RemoteAPIGetDepotByBKGREQ.ashx?BKGREQNO=1",
							"host": [
								"{{server}}"
							],
							"path": [
								"RemoteAPIGetDepotByBKGREQ.ashx"
							],
							"query": [
								{
									"key": "BKGREQNO",
									"value": "1"
								}
							]
						}
					},
					"response": []
				},
				{
					"name": "CONTAINER_SIZE",
					"request": {
						"method": "GET",
						"header": [],
						"url": {
							"raw": "{{server}}/RemoteAPIGetContSizeType.ashx",
							"host": [
								"{{server}}"
							],
							"path": [
								"RemoteAPIGetContSizeType.ashx"
							]
						},
						"description": "Show container size"
					},
					"response": []
				}
			],
			"protocolProfileBehavior": {}
		},
		{
			"name": "Booking",
			"item": [
				{
					"name": "SUBMIT_BOOKING",
					"request": {
						"method": "POST",
						"header": [
							{
								"key": "Content-Type",
								"name": "Content-Type",
								"value": "application/json",
								"type": "text"
							}
						],
						"body": {
							"mode": "raw",
							"raw": "{\r\n    \"UNAME\": \"{{username}}\",\r\n    \"TOKEN\": \"{{token}}\",\r\n    \"POL\": \"SURABAYA\",\r\n    \"POD\": \"BALIKPAPAN\",\r\n    \"VESSEL\": \"2\",\r\n    \"VESSELNAME\": \"\",\r\n    \"VOYAGE\": \"\",\r\n    \"ETD\": \"\",\r\n    \"ETA\": \"\",\r\n    \"COCSOC\": \"\",\r\n    \"ISDG\": \"\",\r\n    \"FULLMT\": \"\",\r\n    \"OPENSTACK\": \"\",\r\n    \"CLOSESTACK\": \"\",\r\n    \"RUTE\": \"\",\r\n    \"COMMODITY\": \"\",\r\n    \"UNIK\": \"\",\r\n    \"GROUPNO\": \"\",\r\n    \"BKGREQ_NO\": \"\",\r\n    \"BKG_REF\": \"\"\r\n    }",
							"options": {
								"raw": {
									"language": "json"
								}
							}
						},
						"url": {
							"raw": "{{server}}/RemoteAPISubmitBookingRequest.ashx",
							"host": [
								"{{server}}"
							],
							"path": [
								"RemoteAPISubmitBookingRequest.ashx"
							]
						},
						"description": "Command to submit booking"
					},
					"response": []
				},
				{
					"name": "CONFIRM_BOOKING",
					"request": {
						"method": "GET",
						"header": [],
						"url": {
							"raw": "{{server}}/RemoteAPIConfirmBKGRequest.ashx?BKGREQNO=&TOKEN={{token}}",
							"host": [
								"{{server}}"
							],
							"path": [
								"RemoteAPIConfirmBKGRequest.ashx"
							],
							"query": [
								{
									"key": "BKGREQNO",
									"value": ""
								},
								{
									"key": "TOKEN",
									"value": "{{token}}"
								}
							]
						},
						"description": "Show confirm booking"
					},
					"response": []
				},
				{
					"name": "MODIFY_BOOKING",
					"request": {
						"method": "POST",
						"header": [
							{
								"key": "Content-Type",
								"name": "Content-Type",
								"value": "application/json",
								"type": "text"
							}
						],
						"body": {
							"mode": "raw",
							"raw": "[\n    {\n        \"UNAME\": \"{{username}}\",\n    \t\"TOKEN\": \"{{token}}\",\n    \t\"BKGREQNO\" : \"\"\n    }\n]",
							"options": {
								"raw": {
									"language": "json"
								}
							}
						},
						"url": {
							"raw": "{{server}}/RemoteAPIModifyBKGRequest.ashx",
							"host": [
								"{{server}}"
							],
							"path": [
								"RemoteAPIModifyBKGRequest.ashx"
							]
						},
						"description": "Command to modify booking"
					},
					"response": []
				},
				{
					"name": "ACTIVE_BOOKING_LIST_FILLTER",
					"request": {
						"method": "GET",
						"header": [],
						"url": {
							"raw": "{{server}}/RemoteAPIGetMyActiveBookingBy10Filtered.ashx?TOKEN={{token}}&STATUS=&POL=&POD=&ISDG=&BKGREQNO=&VESSELCODE=",
							"host": [
								"{{server}}"
							],
							"path": [
								"RemoteAPIGetMyActiveBookingBy10Filtered.ashx"
							],
							"query": [
								{
									"key": "TOKEN",
									"value": "{{token}}"
								},
								{
									"key": "STATUS",
									"value": ""
								},
								{
									"key": "POL",
									"value": ""
								},
								{
									"key": "POD",
									"value": ""
								},
								{
									"key": "ISDG",
									"value": ""
								},
								{
									"key": "BKGREQNO",
									"value": ""
								},
								{
									"key": "VESSELCODE",
									"value": ""
								},
								{
									"key": "",
									"value": "",
									"disabled": true
								}
							]
						}
					},
					"response": []
				},
				{
					"name": "GET_BOOKING_REQUEST_DETAIL",
					"request": {
						"method": "GET",
						"header": [],
						"url": {
							"raw": "{{server}}/RemoteAPIGetBKGRequestDtl.ashx?BKGREQNO=1&TOKEN={{token}}",
							"host": [
								"{{server}}"
							],
							"path": [
								"RemoteAPIGetBKGRequestDtl.ashx"
							],
							"query": [
								{
									"key": "BKGREQNO",
									"value": "1"
								},
								{
									"key": "TOKEN",
									"value": "{{token}}"
								}
							]
						}
					},
					"response": []
				},
				{
					"name": "CHECK_BOOKING",
					"request": {
						"method": "POST",
						"header": [
							{
								"key": "Content-Type",
								"name": "Content-Type",
								"value": "application/json",
								"type": "text"
							}
						],
						"body": {
							"mode": "raw",
							"raw": "[\t\n\t{\t\n\t\t\"UNAME\": \"{{username}}\",\n    \t\"TOKEN\": \"{{token}}\",\n    \t\"POL\": \"\",\n\t\t\"POD\": \"\",\n    \t\"VESSEL\": \"\",\n    \t\"VOYAGE\": \"\",\n    \t\"COCSOC\": \"\",\n    \t\"FULLMT\": \"\",\n    \t\"ISDG\": \"\"\n\t}\n]",
							"options": {
								"raw": {
									"language": "json"
								}
							}
						},
						"url": {
							"raw": "{{server}}/RemoteAPICheckExistingBKG.ashx",
							"host": [
								"{{server}}"
							],
							"path": [
								"RemoteAPICheckExistingBKG.ashx"
							]
						},
						"description": "Command to check booking"
					},
					"response": []
				}
			],
			"protocolProfileBehavior": {}
		},
		{
			"name": "Consignee",
			"item": [
				{
					"name": "SUBMIT_CONSIGNEE",
					"request": {
						"method": "POST",
						"header": [
							{
								"key": "Content-Type",
								"name": "Content-Type",
								"value": "application/json",
								"type": "text"
							}
						],
						"body": {
							"mode": "raw",
							"raw": "[\n\t{\n\t\t\"TOKEN\": \"{{token}}\",\n\t\t\"UNAME\": \"{{username}}\"\n\t}\n]"
						},
						"url": {
							"raw": "{{server}}/RemoteAPISubmitCustomerConsignee.ashx",
							"host": [
								"{{server}}"
							],
							"path": [
								"RemoteAPISubmitCustomerConsignee.ashx"
							]
						}
					},
					"response": []
				},
				{
					"name": "MODIFY_CONSIGNEE",
					"request": {
						"method": "POST",
						"header": [
							{
								"key": "Content-Type",
								"name": "Content-Type",
								"value": "application/json",
								"type": "text"
							}
						],
						"body": {
							"mode": "raw",
							"raw": "[\n\t{\n\t\t\"TOKEN\": \"{{token}}\",\n\t\t\"UNAME\": \"{{username}}\"\n\t}\n]"
						},
						"url": {
							"raw": "{{server}}/RemoteAPIModifyCustomerConsignee.ashx",
							"host": [
								"{{server}}"
							],
							"path": [
								"RemoteAPIModifyCustomerConsignee.ashx"
							]
						}
					},
					"response": []
				},
				{
					"name": "DELETE_CONSIGNEE",
					"request": {
						"method": "POST",
						"header": [
							{
								"key": "Content-Type",
								"name": "Content-Type",
								"value": "application/json",
								"type": "text"
							}
						],
						"body": {
							"mode": "raw",
							"raw": "[\n\t{\n\t\t\"TOKEN\": \"{{token}}\",\n\t\t\"UNAME\": \"{{username}}\"\n\t}\n]"
						},
						"url": {
							"raw": "{{server}}/RemoteAPIDeleteConsigneeList.ashx",
							"host": [
								"{{server}}"
							],
							"path": [
								"RemoteAPIDeleteConsigneeList.ashx"
							]
						}
					},
					"response": []
				},
				{
					"name": "GET_CONSIGNEE_LIST",
					"request": {
						"method": "POST",
						"header": [
							{
								"key": "Content-Type",
								"name": "Content-Type",
								"value": "application/json",
								"type": "text"
							}
						],
						"body": {
							"mode": "raw",
							"raw": "[\n\t{\n\t\t\"TOKEN\": \"{{token}}\"\n\t}\n]"
						},
						"url": {
							"raw": "{{server}}/RemoteAPIGetConsigneeList.ashx",
							"host": [
								"{{server}}"
							],
							"path": [
								"RemoteAPIGetConsigneeList.ashx"
							]
						}
					},
					"response": []
				}
			],
			"protocolProfileBehavior": {}
		},
		{
			"name": "Voucher",
			"item": [
				{
					"name": "GET_VOUCHER_BALANCE",
					"request": {
						"method": "POST",
						"header": [
							{
								"key": "Content-Type",
								"name": "Content-Type",
								"value": "application/json",
								"type": "text"
							}
						],
						"body": {
							"mode": "raw",
							"raw": "[\n\t{\n\t\t\"CONTSIZE\": \"\",\n\t\t\"READYQTY\": \"\",\n\t\t\"PENDINGQTY\": \"\",\n\t\t\"ISTOP\": \"\"\n\t}\n\t\n]"
						},
						"url": {
							"raw": "{{server}}/RemoteAPIGetVoucherBalance.ashx",
							"host": [
								"{{server}}"
							],
							"path": [
								"RemoteAPIGetVoucherBalance.ashx"
							]
						}
					},
					"response": []
				},
				{
					"name": "GET_ACTIVE_VOUCHER",
					"request": {
						"method": "POST",
						"header": [
							{
								"key": "Content-Type",
								"name": "Content-Type",
								"value": "application/json",
								"type": "text"
							}
						],
						"body": {
							"mode": "raw",
							"raw": "[\n\t{\n\t\t\"BUYING_NO\": \"\",\n\t\t\"VOUCHER_NO\": \"\",\n\t\t\"CONTSIZE\": \"\",\n\t\t\"CONTSZTP\": \"\",\n\t\t\"BUYDATE\": \"\",\n\t\t\"RUTE\": \"\",\n\t\t\"VOUCHERSTATUS\": \"\",\n\t\t\"VESSELNAME\": \"\",\n\t\t\"VOYAGE\": \"\",\n\t\t\"CONTNO\": \"\",\n\t\t\"DWINO\": \"\"\n\t}\n\t\n]"
						},
						"url": {
							"raw": "{{server}}/RemoteAPIGetUsedVoucherListBy10Filtered.ashx",
							"host": [
								"{{server}}"
							],
							"path": [
								"RemoteAPIGetUsedVoucherListBy10Filtered.ashx"
							]
						}
					},
					"response": []
				},
				{
					"name": "GET_VOUCHER_LIST",
					"request": {
						"method": "POST",
						"header": [
							{
								"key": "Content-Type",
								"name": "Content-Type",
								"value": "application/json",
								"type": "text"
							}
						],
						"body": {
							"mode": "raw",
							"raw": "[\n\t{\n\t\t\"VOUCHERNO\": \"\",\n\t\t\"BUYINGDATE\": \"\",\n\t\t\"CONTSIZE\": \"\",\n\t\t\"PAYMENTTYPE\": \"\",\n\t\t\"PAYMENTSTATUS\": \"\",\n\t\t\"VOUCHERSTATUS\": \"\",\n\t\t\"CUSTCODE\": \"\",\n\t\t\"INVREQNO\": \"\",\n\t\t\"STUFFINGDATE\": \"\"\n\t}\n\t\n]"
						},
						"url": {
							"raw": "{{server}}/RemoteAPIGetActiveVoucher.ashx",
							"host": [
								"{{server}}"
							],
							"path": [
								"RemoteAPIGetActiveVoucher.ashx"
							]
						}
					},
					"response": []
				},
				{
					"name": "GET_VOUCHER_INVOICE",
					"request": {
						"method": "POST",
						"header": [
							{
								"key": "Content-Type",
								"name": "Content-Type",
								"value": "application/json",
								"type": "text"
							}
						],
						"body": {
							"mode": "raw",
							"raw": "[\n\t{\n\t\t\"INVOICE_NO\": \"\",\n\t\t\"INVDATE\": \"\",\n\t\t\"DUEDATE\": \"\",\n\t\t\"REQUESTEDBY\": \"\",\n\t\t\"INVSTATUS\": \"\",\n\t\t\"TIMESTAMPS\": \"\",\n\t\t\"PAYMENT_METHOD\": \"\"\n\t}\n\t\n]"
						},
						"url": {
							"raw": "{{server}}/RemoteAPIGetVoucherInvoiceListBy10Filtered.ashx",
							"host": [
								"{{server}}"
							],
							"path": [
								"RemoteAPIGetVoucherInvoiceListBy10Filtered.ashx"
							]
						}
					},
					"response": []
				},
				{
					"name": "GET_VOUCHER_RATE",
					"request": {
						"method": "POST",
						"header": [
							{
								"key": "Content-Type",
								"name": "Content-Type",
								"value": "application/json",
								"type": "text"
							}
						],
						"body": {
							"mode": "raw",
							"raw": "[\n\t{\n\t\t\"PARAM_NAME\": \"\",\n\t\t\"PARAM_VALUE\": \"\"\n\t}\n]"
						},
						"url": {
							"raw": "{{server}}/RemoteAPIGetVoucherRateBySize.ashx",
							"host": [
								"{{server}}"
							],
							"path": [
								"RemoteAPIGetVoucherRateBySize.ashx"
							]
						}
					},
					"response": []
				},
				{
					"name": "GET_VOUCHER_DETAIL",
					"request": {
						"method": "POST",
						"header": [
							{
								"key": "Content-Type",
								"name": "Content-Type",
								"value": "application/json",
								"type": "text"
							}
						],
						"body": {
							"mode": "raw",
							"raw": "[\n\t{\n\t\t\"VOUCHERNO\": \"\",\n    \t\"BUYINGDATE\": \"\",\n    \t\"CONTSIZE\": \"\",\n    \t\"PAYMENTTYPE\": \"\",\n    \t\"PAYMENTSTATUS\": \"\",\n    \t\"VOUCHERSTATUS\": \"\",\n    \t\"CUSTCODE\": \"\",\n    \t\"INVOICESTATUS\": \"\",\n    \t\"JAM\": \"\",\n    \t\"MENIT\": \"\",\n\t\t\"DETIK\": \"\"\n\t}\n]"
						},
						"url": {
							"raw": "{{server}}/RemoteAPIGetInvoicePaymentTimeLeft.ashx",
							"host": [
								"{{server}}"
							],
							"path": [
								"RemoteAPIGetInvoicePaymentTimeLeft.ashx"
							]
						}
					},
					"response": []
				},
				{
					"name": "SUBMIT_VOUCHER",
					"request": {
						"method": "POST",
						"header": [
							{
								"key": "Content-Type",
								"name": "Content-Type",
								"value": "application/json",
								"type": "text"
							}
						],
						"body": {
							"mode": "raw",
							"raw": "[\n\t{\n\t\t\"BUYINGNO\": \"\",\n    \t\"ERRSTATUS\": \"\",\n    \t\"BANKCODE\": \"\",\n    \t\"CUSTNUMBER\": \"\",\n    \t\"PAYMENT_NO\": \"\"\n\t}\n]"
						},
						"url": {
							"raw": "{{server}}/RemoteAPISubmitVoucherRequest.ashx",
							"host": [
								"{{server}}"
							],
							"path": [
								"RemoteAPISubmitVoucherRequest.ashx"
							]
						}
					},
					"response": []
				},
				{
					"name": "CONFIRM_SUBMIT_VOUCHER",
					"request": {
						"method": "POST",
						"header": [
							{
								"key": "Content-Type",
								"name": "Content-Type",
								"value": "application/json",
								"type": "text"
							}
						],
						"body": {
							"mode": "raw",
							"raw": "[\n\t{\n\t\t\"BUYINGNO\": \"\",\n    \t\"ERRSTATUS\": \"\",\n    \t\"BANKCODE\": \"\",\n    \t\"CUSTNUMBER\": \"\",\n    \t\"PAYMENT_NO\": \"\"\n\t}\n]"
						},
						"url": {
							"raw": "{{server}}/RemoteAPIConfirmVoucherRequest.ashx",
							"host": [
								"{{server}}"
							],
							"path": [
								"RemoteAPIConfirmVoucherRequest.ashx"
							]
						}
					},
					"response": []
				}
			],
			"protocolProfileBehavior": {}
		},
		{
			"name": "SUBMIT_RO_REQ",
			"request": {
				"method": "POST",
				"header": [
					{
						"key": "Content-Type",
						"name": "Content-Type",
						"value": "application/json",
						"type": "text"
					}
				],
				"body": {
					"mode": "raw",
					"raw": "[\n    {\n        \"UNAME\": \"{{username}}\",\n    \t\"TOKEN\": \"{{token}}\",\n    \t\"BKGREQNO\" : \"\",\n    \t\"ROREQ_NO\": \"\",\n    \t\"RODATE\": \"\",\n    \t\"PICKUP_DEPOT_CODE\": \"\",\n    \t\"PICKUP_DEPOT\": \"\",\n    \t\"RO_STATUS\": \"\",\n    \t\"RO_QTY\": \"\",\n    \t\"RO_REF\": \"\",\n    \t\"QR_CODE\": \"\",\n    \t\"APPRQTY\": \"\",\n    \t\"RODETAILS\": \"\",\n    \t\"DETAILS\": \"\",\n    \t\"ROREQDETAILS\": \"\",\n\t\t\"REALROHDR\": \"\"\n    }\n]",
					"options": {
						"raw": {
							"language": "json"
						}
					}
				},
				"url": {
					"raw": "{{server}}/RemoteAPISubmitDWIRequest.ashx",
					"host": [
						"{{server}}"
					],
					"path": [
						"RemoteAPISubmitDWIRequest.ashx"
					]
				}
			},
			"response": []
		},
		{
			"name": "CONFIRM_RO_REQ",
			"request": {
				"method": "POST",
				"header": [
					{
						"key": "Content-Type",
						"name": "Content-Type",
						"value": "application/json",
						"type": "text"
					}
				],
				"body": {
					"mode": "raw",
					"raw": "[\n    {\n        \"DWINO\": \"\",\n    \t\"TOKEN\": \"{{token}}\"\n    }\n]",
					"options": {
						"raw": {
							"language": "json"
						}
					}
				},
				"url": {
					"raw": "{{server}}/RemoteAPIConfirmDWIRequest.ashx",
					"host": [
						"{{server}}"
					],
					"path": [
						"RemoteAPIConfirmDWIRequest.ashx"
					]
				}
			},
			"response": []
		},
		{
			"name": "GET_BOOKING_DETAIL_RO",
			"request": {
				"method": "POST",
				"header": [
					{
						"key": "Content-Type",
						"name": "Content-Type",
						"value": "application/json",
						"type": "text"
					}
				],
				"body": {
					"mode": "raw",
					"raw": "[\n    {\n    \t\"TOKEN\": \"{{token}}\",\n    \t\"BKGREQNO\": \"1\"\n    }\n]",
					"options": {
						"raw": {
							"language": "json"
						}
					}
				},
				"url": {
					"raw": "{{server}}/RemoteAPIGetBookingHeaderOnly.ashx",
					"host": [
						"{{server}}"
					],
					"path": [
						"RemoteAPIGetBookingHeaderOnly.ashx"
					]
				}
			},
			"response": []
		},
		{
			"name": "CHECK_QTY",
			"request": {
				"method": "POST",
				"header": [
					{
						"key": "Content-Type",
						"name": "Content-Type",
						"value": "application/json",
						"type": "text"
					}
				],
				"body": {
					"mode": "raw",
					"raw": "[\n    {\n    \t\"TOKEN\": \"{{token}}\",\n    \t\"BKGREQNO\": \"1\",\n    \t\"RODTL\": []\n    }\n]",
					"options": {
						"raw": {
							"language": "json"
						}
					}
				},
				"url": {
					"raw": "{{server}}/RemoteAPIGetRemainBKGContainersQty.ashx",
					"host": [
						"{{server}}"
					],
					"path": [
						"RemoteAPIGetRemainBKGContainersQty.ashx"
					]
				}
			},
			"response": []
		},
		{
			"name": "ACTIVE_PORT",
			"request": {
				"method": "GET",
				"header": [],
				"url": {
					"raw": "{{server}}/RemoteAPIGetActivePorts.ashx",
					"host": [
						"{{server}}"
					],
					"path": [
						"RemoteAPIGetActivePorts.ashx"
					]
				}
			},
			"response": []
		},
		{
			"name": "GET_DEFINED_PICKUP_DEPO",
			"request": {
				"method": "POST",
				"header": [
					{
						"key": "Content-Type",
						"name": "Content-Type",
						"type": "text",
						"value": "application/json"
					}
				],
				"body": {
					"mode": "raw",
					"raw": "[\n    {\n        \"TOKEN\": \"Y8keN87yQfqdxs88y2BmzpGP68CRRyBy5c0BjMJfhoCDaMtg34\",\n        \"POL\": \"IDSUB\",\n        \"POD\": \"IDWIN\"\n    }\n]",
					"options": {
						"raw": {
							"language": "json"
						}
					}
				},
				"url": {
					"raw": "{{server}}/RemoteAPIGetDefinedPickupDepo.ashx",
					"host": [
						"{{server}}"
					],
					"path": [
						"RemoteAPIGetDefinedPickupDepo.ashx"
					]
				},
				"description": "Command to check pin required"
			},
			"response": []
		},
		{
			"name": "HEADER_MGS",
			"request": {
				"method": "GET",
				"header": [],
				"url": {
					"raw": "{{server}}/RemoteAPIGetDynamicText.ashx",
					"host": [
						"{{server}}"
					],
					"path": [
						"RemoteAPIGetDynamicText.ashx"
					]
				}
			},
			"response": []
		},
		{
			"name": "DASHBOARD_EC",
			"request": {
				"method": "POST",
				"header": [
					{
						"key": "Content-Type",
						"name": "Content-Type",
						"value": "application/json",
						"type": "text"
					}
				],
				"body": {
					"mode": "raw",
					"raw": "[\n    {\n        \"TOKEN\": \"{{token}}\",\n        \"TAHUN\": \"\",\n        \"TIPE\": \"\"\n    }\n]"
				},
				"url": {
					"raw": "{{server}}/RemoteAPIGetDashboardEcommerces.ashx",
					"host": [
						"{{server}}"
					],
					"path": [
						"RemoteAPIGetDashboardEcommerces.ashx"
					]
				}
			},
			"response": []
		},
		{
			"name": "DASHBOARD_CONSIGNEE",
			"request": {
				"method": "POST",
				"header": [
					{
						"key": "Content-Type",
						"name": "Content-Type",
						"value": "application/json",
						"type": "text"
					}
				],
				"body": {
					"mode": "raw",
					"raw": "[\n    {\n        \"TOKEN\": \"{{token}}\",\n        \"TAHUN\": \"\",\n        \"TIPE\": \"\"\n    }\n]"
				},
				"url": {
					"raw": "{{server}}/RemoteAPIGetDashboardConsignee.ashx",
					"host": [
						"{{server}}"
					],
					"path": [
						"RemoteAPIGetDashboardConsignee.ashx"
					]
				}
			},
			"response": []
		},
		{
			"name": "DASHBOARD_FINANCE",
			"request": {
				"method": "POST",
				"header": [
					{
						"key": "Content-Type",
						"name": "Content-Type",
						"value": "application/json",
						"type": "text"
					}
				],
				"body": {
					"mode": "raw",
					"raw": "[\n    {\n        \"TOKEN\": \"{{token}}\",\n        \"TAHUN\": \"\"\n    }\n]"
				},
				"url": {
					"raw": "{{server}}/RemoteAPIGetDashboardFinance.ashx",
					"host": [
						"{{server}}"
					],
					"path": [
						"RemoteAPIGetDashboardFinance.ashx"
					]
				}
			},
			"response": []
		},
		{
			"name": "PAYMENT_MONTHLY_FINANCE",
			"request": {
				"method": "POST",
				"header": [
					{
						"key": "Content-Type",
						"name": "Content-Type",
						"value": "application/json",
						"type": "text"
					}
				],
				"body": {
					"mode": "raw",
					"raw": "[\n    {\n        \"TOKEN\": \"{{token}}\",\n        \"TAHUN\": \"\",\n        \"BULAN\": \"\"\n    }\n]"
				},
				"url": {
					"raw": "{{server}}/RemoteAPIGetPaymentMonthly.ashx",
					"host": [
						"{{server}}"
					],
					"path": [
						"RemoteAPIGetPaymentMonthly.ashx"
					]
				}
			},
			"response": []
		},
		{
			"name": "GET_FILTER_ACTIVE_SHIPMENT",
			"request": {
				"method": "GET",
				"header": [],
				"url": {
					"raw": "{{server}}/RemoteAPIGetMyshipmentTop5.ashx?TOKEN={{token}}&SORTBY=&SORTORDER=&ETD=",
					"host": [
						"{{server}}"
					],
					"path": [
						"RemoteAPIGetMyshipmentTop5.ashx"
					],
					"query": [
						{
							"key": "TOKEN",
							"value": "{{token}}"
						},
						{
							"key": "SORTBY",
							"value": ""
						},
						{
							"key": "SORTORDER",
							"value": ""
						},
						{
							"key": "ETD",
							"value": ""
						}
					]
				}
			},
			"response": []
		},
		{
			"name": "GET_ACTIVE_SI",
			"request": {
				"method": "GET",
				"header": [],
				"url": {
					"raw": "{{server}}/RemoteAPIGetActiveShippingInstructionBy5Filtered.ashx?TOKEN={{token}}&TIMESTAMPS&POL&POD&SORTORDER&FREETEXT&SINO",
					"host": [
						"{{server}}"
					],
					"path": [
						"RemoteAPIGetActiveShippingInstructionBy5Filtered.ashx"
					],
					"query": [
						{
							"key": "TOKEN",
							"value": "{{token}}"
						},
						{
							"key": "TIMESTAMPS",
							"value": null
						},
						{
							"key": "POL",
							"value": null
						},
						{
							"key": "POD",
							"value": null
						},
						{
							"key": "SORTORDER",
							"value": null
						},
						{
							"key": "FREETEXT",
							"value": null
						},
						{
							"key": "SINO",
							"value": null
						}
					]
				}
			},
			"response": []
		},
		{
			"name": "GET_COMPLETE_SI",
			"request": {
				"method": "GET",
				"header": [],
				"url": {
					"raw": "{{server}}/RemoteAPIGetCompletedSIFiltered.ashx?TOKEN={{token}}&TIMESTAMPS&POL&POD&SORTORDER&FREETEXT&SINO",
					"host": [
						"{{server}}"
					],
					"path": [
						"RemoteAPIGetCompletedSIFiltered.ashx"
					],
					"query": [
						{
							"key": "TOKEN",
							"value": "{{token}}"
						},
						{
							"key": "TIMESTAMPS",
							"value": ""
						},
						{
							"key": "POL",
							"value": ""
						},
						{
							"key": "POD",
							"value": ""
						},
						{
							"key": "SORTORDER",
							"value": ""
						},
						{
							"key": "FREETEXT",
							"value": ""
						},
						{
							"key": "SINO",
							"value": ""
						}
					]
				}
			},
			"response": []
		},
		{
			"name": "ACK_SI_SHUTOUT",
			"request": {
				"method": "POST",
				"header": [
					{
						"key": "Content-Type",
						"name": "Content-Type",
						"value": "application/json",
						"type": "text"
					}
				],
				"body": {
					"mode": "raw",
					"raw": "[\n\t{\n\t\t\"TOKEN\": \"{{token}}\",\n\t\t\"SINO\": \"\",\n\t\t\"REVNO\": \"\",\n\t\t\"CONTNO\": \"\",\n\t\t\"ERR_STATUS\": \"\"\n\t}\n\t\n]"
				},
				"url": {
					"raw": "{{server}}/RemoteAPIAcknowledgeSIShutout.ashx",
					"host": [
						"{{server}}"
					],
					"path": [
						"RemoteAPIAcknowledgeSIShutout.ashx"
					]
				}
			},
			"response": []
		},
		{
			"name": "GET_SI_ROLLOVER",
			"request": {
				"method": "POST",
				"header": [
					{
						"key": "Content-Type",
						"name": "Content-Type",
						"value": "application/json",
						"type": "text"
					}
				],
				"body": {
					"mode": "raw",
					"raw": "[\n\t{\n\t\t\"TOKEN\": \"{{token}}\",\n\t\t\"SINO\": \"\",\n\t\t\"REVNO\": \"\",\n\t\t\"VESSEL_CODE\": \"\",\n\t\t\"VESSEL_NAME\": \"\",\n\t\t\"VOYAGE\": \"\",\n\t\t\"NEW_VESSEL_CODE\": \"\",\n\t\t\"NEW_VESSEL_NAME\": \"\",\n\t\t\"NEW_VOYAGE\": \"\",\n\t\t\"CONT_NO\": \"\"\n\t}\n\t\n]"
				},
				"url": {
					"raw": "{{server}}/RemoteAPIGetShippingInstructionRollover.ashx",
					"host": [
						"{{server}}"
					],
					"path": [
						"RemoteAPIGetShippingInstructionRollover.ashx"
					]
				}
			},
			"response": []
		},
		{
			"name": "RELEASE_SN",
			"request": {
				"method": "POST",
				"header": [
					{
						"key": "Content-Type",
						"name": "Content-Type",
						"value": "application/json",
						"type": "text"
					}
				],
				"body": {
					"mode": "raw",
					"raw": "[\n\t{\n\t\t\"TOKEN\": \"{{token}}\",\n\t\t\"UNAME\": \"{{username}}\",\n\t\t\"SINO\": \"\",\n\t\t\"BLNO\": \"\",\n\t\t\"POL\": \"\",\n\t\t\"POD\": \"\",\n\t\t\"VESSELCODE\": \"\",\n\t\t\"VOYAGE\": \"\",\n\t\t\"ETD\": \"\",\n\t\t\"ETA\": \"\",\n\t\t\"REVNO\": \"\",\n\t\t\"ERRSTATUS\": \"\"\n\t}\n\t\n]"
				},
				"url": {
					"raw": "{{server}}/RemoteAPIReleaseSN.ashx",
					"host": [
						"{{server}}"
					],
					"path": [
						"RemoteAPIReleaseSN.ashx"
					]
				},
				"description": "Command to show release SN"
			},
			"response": []
		},
		{
			"name": "GET_URL_PRINT",
			"request": {
				"method": "GET",
				"header": [],
				"url": {
					"raw": "{{server}}/RemoteAPIGetURLPrint.ashx",
					"host": [
						"{{server}}"
					],
					"path": [
						"RemoteAPIGetURLPrint.ashx"
					]
				},
				"description": "Show URL print"
			},
			"response": []
		},
		{
			"name": "GET_APK_VER",
			"request": {
				"method": "GET",
				"header": [],
				"url": {
					"raw": "{{server}}/RemoteAPIGetApkLatestVersion.ashx",
					"host": [
						"{{server}}"
					],
					"path": [
						"RemoteAPIGetApkLatestVersion.ashx"
					]
				},
				"description": "Show APK version"
			},
			"response": []
		},
		{
			"name": "CANCEL_DWI_REQUEST",
			"request": {
				"method": "POST",
				"header": [
					{
						"key": "Content-Type",
						"name": "Content-Type",
						"value": "application/json",
						"type": "text"
					}
				],
				"body": {
					"mode": "raw",
					"raw": "[\n\t{\n\t\t\"ERRSTATUS\": \"\"\n\t}\n]"
				},
				"url": {
					"raw": "{{server}}/RemoteAPICancelDWIRequest.ashx",
					"host": [
						"{{server}}"
					],
					"path": [
						"RemoteAPICancelDWIRequest.ashx"
					]
				}
			},
			"response": []
		},
		{
			"name": "GET_AMOUNT_BOOKING_DWI_ROLIST",
			"request": {
				"method": "POST",
				"header": [
					{
						"key": "Content-Type",
						"name": "Content-Type",
						"value": "application/json",
						"type": "text"
					}
				],
				"body": {
					"mode": "raw",
					"raw": "[\n\t{\n\t\t\"CNT\": \"\",\n\t\t\"GRP\": \"\"\n\t}\n\t\n]"
				},
				"url": {
					"raw": "{{server}}/RemoteAPIGetDWIListCounts.ashx",
					"host": [
						"{{server}}"
					],
					"path": [
						"RemoteAPIGetDWIListCounts.ashx"
					]
				}
			},
			"response": []
		},
		{
			"name": "GET_SI_REVISION_HISTORY",
			"request": {
				"method": "POST",
				"header": [
					{
						"key": "Content-Type",
						"name": "Content-Type",
						"value": "application/json",
						"type": "text"
					}
				],
				"body": {
					"mode": "raw",
					"raw": "[\n\t{\n\t\t\"SI_NO\": \"\",\n\t\t\"REVNO\": \"\",\n\t\t\"STATUS\": \"\",\n\t\t\"FOLDERNAME\": \"\",\n\t\t\"SIDATE\": \"\"\n\t}\n\t\n]"
				},
				"url": {
					"raw": "{{server}}/RemoteAPIGetShippingInstructionRevHistory.ashx",
					"host": [
						"{{server}}"
					],
					"path": [
						"RemoteAPIGetShippingInstructionRevHistory.ashx"
					]
				}
			},
			"response": []
		},
		{
			"name": "GET_PAYMENT_DETAILS",
			"request": {
				"method": "POST",
				"header": [
					{
						"key": "Content-Type",
						"name": "Content-Type",
						"value": "application/json",
						"type": "text"
					}
				],
				"body": {
					"mode": "raw",
					"raw": "[\n\t{\n\t\t\"TOKEN\": \"{{token}}\",\n\t\t\"INVREQNO\": \"\"\n\t}\n]"
				},
				"url": {
					"raw": "{{server}}/RemoteAPIGetPaymentDetails.ashx",
					"host": [
						"{{server}}"
					],
					"path": [
						"RemoteAPIGetPaymentDetails.ashx"
					]
				}
			},
			"response": []
		},
		{
			"name": "SUBMIT_PAYMENT",
			"request": {
				"method": "POST",
				"header": [
					{
						"key": "Content-Type",
						"name": "Content-Type",
						"value": "application/json",
						"type": "text"
					}
				],
				"body": {
					"mode": "raw",
					"raw": "[\n\t{\n    \t\"ERRSTATUS\": \"\",\n    \t\"PAYMENT_NO\": \"\",\n    \t\"BANK_CODE\": \"\",\n    \t\"CUST_NUMBER\": \"\",\n    \t\"BUYING_NO\": \"\"\n\t}\n]"
				},
				"url": {
					"raw": "{{server}}/RemoteAPISubmitPaymentRequest.ashx",
					"host": [
						"{{server}}"
					],
					"path": [
						"RemoteAPISubmitPaymentRequest.ashx"
					]
				}
			},
			"response": []
		},
		{
			"name": "GET_CURRENT_USER_PROFILE",
			"request": {
				"method": "POST",
				"header": [
					{
						"key": "Content-Type",
						"name": "Content-Type",
						"value": "application/json",
						"type": "text"
					}
				],
				"body": {
					"mode": "raw",
					"raw": "[\n\t{\n    \t\"UNAME\": \"{{username}}\",\n    \t\"TOKEN\": \"{{token}}\"\n\t}\n]"
				},
				"url": {
					"raw": "{{server}}/RemoteAPIGetCurrentUserProfile.ashx",
					"host": [
						"{{server}}"
					],
					"path": [
						"RemoteAPIGetCurrentUserProfile.ashx"
					]
				}
			},
			"response": []
		},
		{
			"name": "GET_ROUTES",
			"request": {
				"method": "POST",
				"header": [
					{
						"key": "Content-Type",
						"name": "Content-Type",
						"value": "application/json",
						"type": "text"
					}
				],
				"body": {
					"mode": "raw",
					"raw": "[\n\t{\n\t\t\"SERVICENAME\": \"\",\n\t\t\"FREKUENSI\": \"\",\n\t\t\"LASTMODIFIED\": \"\",\n\t\t\"NO_OF_VESSEL\": \"\",\n\t\t\"AREA\": \"SUMATRA\",\n\t\t\"REMARK\": \"\"\n\t}\n]"
				},
				"url": {
					"raw": "{{server}}/RemoteAPIGetMeratusServicesByArea.ashx",
					"host": [
						"{{server}}"
					],
					"path": [
						"RemoteAPIGetMeratusServicesByArea.ashx"
					]
				}
			},
			"response": []
		},
		{
			"name": "GET_SERVICES",
			"request": {
				"method": "POST",
				"header": [
					{
						"key": "Content-Type",
						"name": "Content-Type",
						"value": "application/json",
						"type": "text"
					}
				],
				"body": {
					"mode": "raw",
					"raw": "[\n\t{\n\t\t\"SERVICENAME\": \"\",\n\t\t\"FREKUENSI\": \"\",\n\t\t\"LASTMODIFIED\": \"\",\n\t\t\"NO_OF_VESSEL\": \"\",\n\t\t\"AREA\": \"\",\n\t\t\"REMARK\": \"\"\n\t}\n]"
				},
				"url": {
					"raw": "{{server}}/RemoteAPIGetMeratusServices.ashx",
					"host": [
						"{{server}}"
					],
					"path": [
						"RemoteAPIGetMeratusServices.ashx"
					]
				}
			},
			"response": []
		},
		{
			"name": "GET_DISCLAIMER",
			"request": {
				"method": "GET",
				"header": [],
				"url": {
					"raw": "{{server}}/RemoteAPIGetDisclaimer.ashx?TOKEN={{token}}&TYPE=DWI",
					"host": [
						"{{server}}"
					],
					"path": [
						"RemoteAPIGetDisclaimer.ashx"
					],
					"query": [
						{
							"key": "TOKEN",
							"value": "{{token}}"
						},
						{
							"key": "TYPE",
							"value": "DWI"
						}
					]
				}
			},
			"response": []
		},
		{
			"name": "GET_MY_CONTAINER",
			"request": {
				"method": "POST",
				"header": [
					{
						"key": "Content-Type",
						"name": "Content-Type",
						"value": "application/json",
						"type": "text"
					}
				],
				"body": {
					"mode": "raw",
					"raw": "[\n\t{\n\t\t\"TOKEN\": \"{{token}}\",\n\t\t\"POL\": \"\",\n\t\t\"POD\": \"\"\n\t}\n]"
				},
				"url": {
					"raw": "{{server}}/RemoteAPIGetMyContainer.ashx",
					"host": [
						"{{server}}"
					],
					"path": [
						"RemoteAPIGetMyContainer.ashx"
					]
				}
			},
			"response": []
		},
		{
			"name": "GET_MY_CONTAINER_C",
			"request": {
				"method": "POST",
				"header": [
					{
						"key": "Content-Type",
						"name": "Content-Type",
						"value": "application/json",
						"type": "text"
					}
				],
				"body": {
					"mode": "raw",
					"raw": "[\n\t{\n\t\t\"TOKEN\": \"{{token}}\",\n\t\t\"POL\": \"\",\n\t\t\"POD\": \"\"\n\t}\n]"
				},
				"url": {
					"raw": "{{server}}/RemoteAPIGetMyContainerConsignee.ashx",
					"host": [
						"{{server}}"
					],
					"path": [
						"RemoteAPIGetMyContainerConsignee.ashx"
					]
				}
			},
			"response": []
		},
		{
			"name": "GET_MY_CONTAINER_DETAIL",
			"request": {
				"method": "POST",
				"header": [
					{
						"key": "Content-Type",
						"name": "Content-Type",
						"value": "application/json",
						"type": "text"
					}
				],
				"body": {
					"mode": "raw",
					"raw": "[\n\t{\n\t\t\"TOKEN\": \"{{token}}\",\n\t\t\"CONTSTATUS\": \"\",\n\t\t\"POL\": \"\",\n\t\t\"POD\": \"\"\n\t}\n]"
				},
				"url": {
					"raw": "{{server}}/RemoteAPIGetMyContainerDetail.ashx",
					"host": [
						"{{server}}"
					],
					"path": [
						"RemoteAPIGetMyContainerDetail.ashx"
					]
				}
			},
			"response": []
		},
		{
			"name": "GET_MY_CONTAINER_DETAIL_C",
			"request": {
				"method": "POST",
				"header": [
					{
						"key": "Content-Type",
						"name": "Content-Type",
						"value": "application/json",
						"type": "text"
					}
				],
				"body": {
					"mode": "raw",
					"raw": "[\n\t{\n\t\t\"TOKEN\": \"{{token}}\",\n\t\t\"CONTSTATUS\": \"\",\n\t\t\"POL\": \"\",\n\t\t\"POD\": \"\"\n\t}\n]"
				},
				"url": {
					"raw": "{{server}}/RemoteAPIGetMyContainerConsigneeDetail.ashx",
					"host": [
						"{{server}}"
					],
					"path": [
						"RemoteAPIGetMyContainerConsigneeDetail.ashx"
					]
				}
			},
			"response": []
		},
		{
			"name": "GET_CONTRACTS",
			"request": {
				"method": "POST",
				"header": [
					{
						"key": "Content-Type",
						"name": "Content-Type",
						"value": "application/json",
						"type": "text"
					}
				],
				"body": {
					"mode": "raw",
					"raw": "[\n\t{\n\t\t\"TOKEN\": \"{{token}}\",\n\t\t\"BKGREQNO\": \"\",\n\t\t\"CUSTCODE\": \"\",\n\t\t\"POL\": \"\",\n\t\t\"POD\": \"\",\n\t\t\"SHIPTERM\": \"\",\n\t\t\"SOCCOC\": \"\",\n\t\t\"SIZETYPE\": \"\",\n\t\t\"QTNTYPE\": \"\",\n\t\t\"CONTRACTREFF\": \"\"\n\t}\n]"
				},
				"url": {
					"raw": "{{server}}/RemoteAPIGetQuotationContract.ashx",
					"host": [
						"{{server}}"
					],
					"path": [
						"RemoteAPIGetQuotationContract.ashx"
					]
				}
			},
			"response": []
		},
		{
			"name": "UPLOAD_FILE",
			"request": {
				"method": "POST",
				"header": [
					{
						"key": "Content-Type",
						"name": "Content-Type",
						"value": "application/json",
						"type": "text"
					}
				],
				"body": {
					"mode": "raw",
					"raw": "[\n\t{\n\t\t\"FILENAME\": \"\",\n\t\t\"FOLDERNAME\": \"\"\n\t}\n]"
				},
				"url": {
					"raw": "{{server}}/RemoteAPIUploadKTPNPWP.ashx",
					"host": [
						"{{server}}"
					],
					"path": [
						"RemoteAPIUploadKTPNPWP.ashx"
					]
				}
			},
			"response": []
		},
		{
			"name": "SUBMIT_INV_PAYMENT",
			"request": {
				"method": "POST",
				"header": [
					{
						"key": "Content-Type",
						"name": "Content-Type",
						"value": "application/json",
						"type": "text"
					}
				],
				"body": {
					"mode": "raw",
					"raw": "[\n\t{\n\t\t\"TOKEN\": \"{{token}}\",\n\t\t\"UNAME\": \"{{username}}\",\n\t\t\"PAYMENT_NO\": \"\"\n\t}\n]"
				},
				"url": {
					"raw": "{{server}}/RemoteAPISubmitPaymentINVAX.ashx",
					"host": [
						"{{server}}"
					],
					"path": [
						"RemoteAPISubmitPaymentINVAX.ashx"
					]
				}
			},
			"response": []
		},
		{
			"name": "GET_DG_FILE",
			"request": {
				"method": "POST",
				"header": [
					{
						"key": "Content-Type",
						"name": "Content-Type",
						"value": "application/json",
						"type": "text"
					}
				],
				"body": {
					"mode": "raw",
					"raw": "[\n\t{\n\t\t\"TOKEN\": \"{{token}}\",\n\t\t\"BKGREQNO\": \"\"\n\t}\n]"
				},
				"url": {
					"raw": "{{server}}/RemoteAPIGetDGDeclareAttachment.ashx",
					"host": [
						"{{server}}"
					],
					"path": [
						"RemoteAPIGetDGDeclareAttachment.ashx"
					]
				}
			},
			"response": []
		},
		{
			"name": "GET_DG_URL",
			"request": {
				"method": "POST",
				"header": [
					{
						"key": "Content-Type",
						"name": "Content-Type",
						"value": "application/json",
						"type": "text"
					}
				],
				"body": {
					"mode": "raw",
					"raw": "[\n\t{\n\t\t\"TOKEN\": \"{{token}}\",\n\t\t\"BKGREQNO\": \"\",\n\t\t\"FILENAME\": \"\"\n\t}\n]"
				},
				"url": {
					"raw": "{{server}}/RemoteAPIDownloadDGFilesFromApps.ashx",
					"host": [
						"{{server}}"
					],
					"path": [
						"RemoteAPIDownloadDGFilesFromApps.ashx"
					]
				}
			},
			"response": []
		},
		{
			"name": "GET_CART_CONTENT",
			"request": {
				"method": "POST",
				"header": [
					{
						"key": "Content-Type",
						"name": "Content-Type",
						"value": "application/json",
						"type": "text"
					}
				],
				"body": {
					"mode": "raw",
					"raw": "[\n\t{\n\t\t\"TOKEN\": \"{{token}}\",\n\t\t\"UNAME\": \"{{username}}\"\n\t}\n]"
				},
				"url": {
					"raw": "{{server}}/RemoteAPIGetContentCart.ashx",
					"host": [
						"{{server}}"
					],
					"path": [
						"RemoteAPIGetContentCart.ashx"
					]
				}
			},
			"response": []
		},
		{
			"name": "DEL_FROM_CART",
			"request": {
				"method": "POST",
				"header": [
					{
						"key": "Content-Type",
						"name": "Content-Type",
						"value": "application/json",
						"type": "text"
					}
				],
				"body": {
					"mode": "raw",
					"raw": "[\n\t{\n\t\t\"INVNO\": \"\",\n\t\t\"TOKEN\": \"{{token}}\",\n\t\t\"UNAME\": \"{{username}}\"\n\t}\n]"
				},
				"url": {
					"raw": "{{server}}/RemoteAPIDeleteFromCart.ashx",
					"host": [
						"{{server}}"
					],
					"path": [
						"RemoteAPIDeleteFromCart.ashx"
					]
				}
			},
			"response": []
		},
		{
			"name": "ADD_TO_CART",
			"request": {
				"method": "POST",
				"header": [
					{
						"key": "Content-Type",
						"name": "Content-Type",
						"value": "application/json",
						"type": "text"
					}
				],
				"body": {
					"mode": "raw",
					"raw": "[\n\t{\n\t\t\"TOKEN\": \"{{token}}\",\n\t\t\"UNAME\": \"{{username}}\",\n\t\t\"CUSTCODE\": \"\",\n\t\t\"INVOICENO\": \"\",\n\t\t\"BLNO\": \"\",\n\t\t\"VESSVOY\": \"\",\n\t\t\"CONTSIZE\": \"\",\n    \t\"QTY\": \"\",\n    \t\"RATE\": \"\",\n    \t\"PAYMENTBRANCH\": \"\",\n    \t\"DUEDATE\": \"\",\n    \t\"TOTALAMNT\": \"\",\n    \t\"CURRENCY\": \"\"\n\t\t\n\t}\n]"
				},
				"url": {
					"raw": "{{server}}/RemoteAPIAddtoCart.ashx",
					"host": [
						"{{server}}"
					],
					"path": [
						"RemoteAPIAddtoCart.ashx"
					]
				}
			},
			"response": []
		},
		{
			"name": "CHANGE_USER_SC",
			"request": {
				"method": "POST",
				"header": [
					{
						"key": "Content-Type",
						"name": "Content-Type",
						"value": "application/json",
						"type": "text"
					}
				],
				"body": {
					"mode": "raw",
					"raw": "[\n\t{\n\t\t\"TOKEN\": \"{{token}}\",\n\t\t\"UNAME\": \"{{username}}\",\n\t\t\"ASCS\": \"\"\n\t}\n]"
				},
				"url": {
					"raw": "{{server}}/RemoteAPIChangeUserAsCorS.ashx",
					"host": [
						"{{server}}"
					],
					"path": [
						"RemoteAPIChangeUserAsCorS.ashx"
					]
				}
			},
			"response": []
		},
		{
			"name": "GET_USER_SC",
			"request": {
				"method": "POST",
				"header": [
					{
						"key": "Content-Type",
						"name": "Content-Type",
						"value": "application/json",
						"type": "text"
					}
				],
				"body": {
					"mode": "raw",
					"raw": "[\n\t{\n\t\t\"TOKEN\": \"{{token}}\",\n\t\t\"UNAME\": \"{{username}}\"\n\t}\n]"
				},
				"url": {
					"raw": "{{server}}/RemoteAPIGetCurrentUserAsCorS.ashx",
					"host": [
						"{{server}}"
					],
					"path": [
						"RemoteAPIGetCurrentUserAsCorS.ashx"
					]
				}
			},
			"response": []
		},
		{
			"name": "GET_RATE_NEGO",
			"request": {
				"method": "POST",
				"header": [
					{
						"key": "Content-Type",
						"name": "Content-Type",
						"value": "application/json",
						"type": "text"
					}
				],
				"body": {
					"mode": "raw",
					"raw": "[\n\t{\n\t\t\"TOKEN\": \"{{token}}\",\n\t\t\"DUTIDHDR\": \"\",\n\t\t\"DUTIDDTL\": \"\"\n\t}\n]"
				},
				"url": {
					"raw": "{{server}}/RemoteAPIGetMyRateNegoLog.ashx",
					"host": [
						"{{server}}"
					],
					"path": [
						"RemoteAPIGetMyRateNegoLog.ashx"
					]
				}
			},
			"response": []
		},
		{
			"name": "ACCEPT_RATE_NEGO",
			"request": {
				"method": "POST",
				"header": [
					{
						"key": "Content-Type",
						"name": "Content-Type",
						"value": "application/json",
						"type": "text"
					}
				],
				"body": {
					"mode": "raw",
					"raw": "[\n\t{\n\t\t\"TOKEN\": \"{{token}}\",\n\t\t\"DUTIDHDR\": \"\",\n\t\t\"NEGO_ID\": \"\",\n\t\t\"ERRSTATUS\": \"\"\n\t}\n]"
				},
				"url": {
					"raw": "{{server}}/RemoteAPIAcceptRateNego.ashx",
					"host": [
						"{{server}}"
					],
					"path": [
						"RemoteAPIAcceptRateNego.ashx"
					]
				}
			},
			"response": []
		},
		{
			"name": "SUBMIT_DUT_REQ",
			"request": {
				"method": "POST",
				"header": [
					{
						"key": "Content-Type",
						"name": "Content-Type",
						"value": "application/json",
						"type": "text"
					}
				],
				"body": {
					"mode": "raw",
					"raw": "[\n\t{\n\t\t\"TOKEN\": \"{{token}}\",\n\t\t\"UNAME\": \"{{username}}\"\n\t}\n]"
				},
				"url": {
					"raw": "{{server}}/RemoteAPISubmitDUTRequest.ashx",
					"host": [
						"{{server}}"
					],
					"path": [
						"RemoteAPISubmitDUTRequest.ashx"
					]
				}
			},
			"response": []
		},
		{
			"name": "REQUEST_DO",
			"request": {
				"method": "POST",
				"header": [
					{
						"key": "Content-Type",
						"name": "Content-Type",
						"value": "application/json",
						"type": "text"
					}
				],
				"body": {
					"mode": "raw",
					"raw": "[\n\t{\n\t\t\"TOKEN\": \"{{token}}\",\n\t\t\"VESSEL\": \"\",\n\t\t\"POL\": \"\",\n\t\t\"POD\": \"\",\n\t\t\"SHIPPER\": \"\",\n\t\t\"CONSIGNEE\": \"\",\n\t\t\"PICKUPDATE\": \"\"\n\t}\n]"
				},
				"url": {
					"raw": "{{server}}/RemoteAPISubmitDORequest.ashx",
					"host": [
						"{{server}}"
					],
					"path": [
						"RemoteAPISubmitDORequest.ashx"
					]
				}
			},
			"response": []
		},
		{
			"name": "GET_SN_BY10",
			"request": {
				"method": "POST",
				"header": [
					{
						"key": "Content-Type",
						"name": "Content-Type",
						"value": "application/json",
						"type": "text"
					}
				],
				"body": {
					"mode": "raw",
					"raw": "[\n\t{\n\t\t\"TOKEN\": \"{{token}}\",\n\t\t\"POL\": \"\",\n\t\t\"POD\": \"\",\n\t\t\"BLNO\": \"\"\n\t}\n]"
				},
				"url": {
					"raw": "{{server}}/RemoteAPIGetReleasedSNBy10.ashx",
					"host": [
						"{{server}}"
					],
					"path": [
						"RemoteAPIGetReleasedSNBy10.ashx"
					]
				}
			},
			"response": []
		},
		{
			"name": "GET_BRANCH",
			"request": {
				"method": "POST",
				"header": [
					{
						"key": "Content-Type",
						"name": "Content-Type",
						"value": "application/json",
						"type": "text"
					}
				],
				"body": {
					"mode": "raw",
					"raw": "[\n\t{\n\t\t\"TOKEN\": \"{{token}}\",\n\t\t\"AREA\": \"\",\n\t\t\"BRANCH\": \"\"\n\t}\n]"
				},
				"url": {
					"raw": "{{server}}/RemoteAPIGetMeratusOffices.ashx",
					"host": [
						"{{server}}"
					],
					"path": [
						"RemoteAPIGetMeratusOffices.ashx"
					]
				}
			},
			"response": []
		},
		{
			"name": "GET_API_MODULE",
			"request": {
				"method": "POST",
				"header": [
					{
						"key": "Content-Type",
						"name": "Content-Type",
						"value": "application/json",
						"type": "text"
					}
				],
				"body": {
					"mode": "raw",
					"raw": "[\n\t{\n\t\t\"TOKEN\": \"{{token}}\",\n\t\t\"UNAME\": \"{{username}}\"\n\t}\n]"
				},
				"url": {
					"raw": "{{server}}/RemoteAPIGetAPIRequestItem.ashx",
					"host": [
						"{{server}}"
					],
					"path": [
						"RemoteAPIGetAPIRequestItem.ashx"
					]
				}
			},
			"response": []
		},
		{
			"name": "GET_API_REQ_FORM_PDF",
			"request": {
				"method": "POST",
				"header": [
					{
						"key": "Content-Type",
						"name": "Content-Type",
						"value": "application/json",
						"type": "text"
					}
				],
				"body": {
					"mode": "raw",
					"raw": "[\n\t{\n\t\t\"TOKEN\": \"{{token}}\",\n\t\t\"RESTYPE\": \"\"\n\t}\n]"
				},
				"url": {
					"raw": "{{server}}/RemoteAPIGetGeneralURL.ashx",
					"host": [
						"{{server}}"
					],
					"path": [
						"RemoteAPIGetGeneralURL.ashx"
					]
				}
			},
			"response": []
		}
	],
	"event": [
		{
			"listen": "prerequest",
			"script": {
				"id": "d436ac73-1d61-42af-9b52-8d3bb5e3c3d1",
				"type": "text/javascript",
				"exec": [
					""
				]
			}
		},
		{
			"listen": "test",
			"script": {
				"id": "b641eb20-72eb-4f69-aaf7-9a0ac7ecc63e",
				"type": "text/javascript",
				"exec": [
					""
				]
			}
		}
	],
	"protocolProfileBehavior": {}
}